<?xml version="1.0" encoding="UTF-8"?>
<svg xmlns="http://www.w3.org/2000/svg" width="2.25in" height="2.25in" viewBox="0 0 162 162">
  <defs>
    <style>
      .h {
        fill: #70a005;
      }

      .h, .i, .j, .k, .l, .m, .n, .o, .p, .q, .r, .s, .t, .u, .v, .w, .x, .y, .z, .aa, .ab, .ac, .ad, .ae, .af, .ag, .ah {
        stroke-width: 0px;
      }

      .i {
        fill: #9fcc3e;
      }

      .j {
        fill: #ffb3ce;
      }

      .k {
        fill: #ff73ac;
      }

      .l {
        fill: #771546;
      }

      .m {
        fill: #ef2e7d;
      }

      .n {
        fill: #dd1b73;
      }

      .o {
        fill: #af086b;
      }

      .p {
        fill: #a2b74a;
      }

      .q {
        fill: #f4406f;
      }

      .r {
        fill: #ffe0ee;
      }

      .s {
        fill: #ced457;
      }

      .t {
        fill: #fc97c5;
      }

      .ai {
        stroke: #000;
        stroke-linejoin: round;
        stroke-width: .5px;
      }

      .ai, .aj, .ak {
        fill: none;
        stroke-linecap: round;
      }

      .u {
        fill: #c1056c;
      }

      .v {
        fill: #000;
      }

      .w {
        fill: #bf0258;
      }

      .x {
        fill: #c11674;
      }

      .aj {
        stroke-width: 2px;
      }

      .aj, .ak {
        stroke: #406001;
        stroke-miterlimit: 10;
      }

      .y {
        fill: #f8a;
      }

      .z {
        fill: #79af02;
      }

      .aa {
        fill: #659302;
      }

      .ab {
        fill: #406001;
      }

      .ac {
        fill: #b2045b;
      }

      .ad {
        fill: #ffd1df;
      }

      .ae {
        fill: #f482b1;
      }

      .af {
        fill: #7ba316;
      }

      .ag {
        fill: #f2689e;
      }

      .ah {
        fill: #a5bd37;
      }
    </style>
  </defs>
  <g id="e" data-name="blossom">
    <path class="aj" d="M75.2998,22.05824c-5.33399-4.11941-11.36996-4.89145-18.01337.69777-7.09299,5.96747-11.36226,2.89876-18.42672,7.92238-8.31185,5.91065-7.06425,13.52857-14.59987,20.42858-9.242,8.46246-13.48824,14.91047-14.99617,22.3887-1.78431,8.8489-2.01044,18.50244,4.33718,26.91849,4.10845,5.44722,9.12076,6.16327,12.24532,10.71991,3.35044,4.88605,2.22671,11.36634,5.39038,17.2688,4.38294,8.17726,11.23484,14.22757,18.80879,16.60795,10.92868,3.43473,18.79889-1.85492,25.12338-2.37332,6.77116-.55501,9.84962,4.25089,16.58883,2.69568,4.43904-1.02439,8.75097-7.43248,13.50321-9.43246,4.23591-1.78268,7.5248.2488,15.33691-5.94766,9.24633-7.33405,7.40316-12.07504,11.3714-24.72102,1.96839-6.27286,5.31811-12.07017,5.31811-12.07017"/>
    <path class="ak" d="M75.2998,22.05824c-3.12659-1.43781-13.32566-1.62576-18.26853,5.2225-3.84336,5.32491-12.50796,8.07437-18.59021,8.6007-9.87781.85478-20.50151,12.53181-18.49162,22.34185,3.25843,15.90405-4.93161,19.74655-5.40341,33.11437-.6454,18.28639,2.35903,29.4092,19.85294,39.24306,8.56319,4.81363,14.90669,4.48325,23.55883,8.01327,8.12549,3.31515,10.97221,8.79062,19.80291,11.61218,10.19844,3.25857,22.70078-2.21694,28.49096-11.44471,5.67408-9.04275,13.34218-15.54013,20.78788-20.95779,8.67827-6.31451,12.30828-17.33664,10.24762-24.64177"/>
    <g>
      <path class="v" d="M59.4834,65.17822v-14.5957l-.37598-.0127c-.19141-.00732-.36523-.01807-.53711-.01318-.58691.00098-1.17285.00342-1.75879.00537-.50781.00244-1.0166.00439-1.52344.00488h-.00684c-.39258,0-.46387-.06885-.47266-.45605-.00879-.3418.00098-.69189.00977-1.03027l.00879-.34131c.00293-.09961.00879-.19971.0166-.31494l.00879-.15576c.1377-.12207.26465-.16504.47363-.15869,1.00879.02734,2.03418.02539,3.02734.02393l.80664-.00098c1.84082,0,3.68066-.00049,5.52148-.00146l1.57715-.00098c.04102,0,.08203-.00146.12305-.00293.0791-.00195.15234-.00586.22363.00244.2207.02393.29395.10498.2998.33057.0166.59717.02148,1.09033.01562,1.55176-.00586.50732-.0459.55664-.53027.55664h-.02734c-1.35156-.00537-2.7041-.0083-4.05566-.01172-.04785,0-.10547.00293-.17871.00732l-.21582.01221v14.52344c-.57422.12646-1.12598.10938-1.70703.09082-.20312-.00635-.41113-.01318-.62305-.01318-.0332,0-.06641.00049-.09961.00049Z"/>
      <path class="v" d="M80.60254,56.99707c-.01367.40918-.02832.83203-.03125,1.24805-.00781,1.07959-.00586,2.15967-.00293,3.23926.00098.47754.00195.95508.00195,1.43213v2.17725c-.50098.14014-1.00195.12354-1.52832.10547-.1748-.00537-.35254-.01123-.5332-.01123-.11328,0-.22656.00195-.3418.0083l-.00391-.3667c-.00391-.37842-.00781-.74023-.01074-1.10352-.00195-.33398-.00293-.66797-.00391-1.00195l-.00391-1.15625c-.00195-.2998-.00293-.59912-.00391-.89941-.00098-.34033,0-.68018,0-1.03223v-.65088h-5.31348l-.00293.09668c-.02832,1.01514-.02246,2.05273-.0166,3.05615.00586.96875.01172,1.96924-.0127,2.96924-.54297.12598-1.07715.10791-1.63867.0874-.24414-.0083-.49707-.01758-.74902-.0127l-.00391-.0498c-.00781-.08643-.01465-.16016-.01465-.23389l.00293-2.96631c.00195-1.66846.00391-3.3374.00195-5.00537-.00098-.93506-.00684-1.86963-.01367-2.8042-.00586-.83301-.01074-1.66553-.0127-2.49854-.00293-.98926.00391-2.03369.02148-3.10449.00195-.08154.0332-.16797.07324-.27734.01465-.04102.03027-.08447.0459-.13086l.52734-.00098c.42871-.00195.83301-.00293,1.23828.00293.51074.0083.5459.0459.5459.5708,0,1.43066.00098,2.86084.00195,4.2915l.00195,3.41406.0625.02441c.02832.01172.05566.02539.08203.03809.06934.03467.1416.07031.22363.07031,1.2793.00586,2.55762.00635,3.87207.00439h1.04688l.00586-.09326c.00879-.13379.01953-.26416.0293-.3916.02246-.2793.04395-.54395.04297-.81201-.00098-.46094-.01074-.92236-.02051-1.3833-.00977-.45459-.01953-.90869-.02051-1.36377-.00195-.58301.00195-1.16553.00488-1.74902.00391-.69141.00781-1.3833.00293-2.07471-.00098-.20752.00879-.36719.14062-.50342l.40039-.01416c.33984-.01172.68262-.02441,1.02441-.03467.1123-.00293.25879-.00586.40723.00391.39355.02344.45215.08838.45312.49023.00098.23877-.00098.47754-.00098.7168-.00195.38086-.00391.76172,0,1.14307.00586.61572.01367,1.23242.02246,1.84863.01367,1.06738.02832,2.17041.03125,3.25537.00098.47754-.01562.96338-.03223,1.43408l.00098-.00195Z"/>
      <path class="v" d="M95.04688,65.18652c-.35352.00049-.70703,0-1.06055-.00098l-5.71582-.00146h-3.02637c-.00293-.03857-.00586-.07666-.00879-.11377-.01074-.12305-.01953-.23438-.01953-.34521.00098-1.88867.00293-3.77686.00488-5.66553l.00195-2.91211c.00195-1.31396.00293-2.62793.00293-3.94189l-.00195-1.35938c-.00098-.71191-.00293-1.42383-.00098-2.13525,0-.13184.0332-.26953.0625-.37451.02637-.09326.06152-.13525.2002-.13818.23633-.00488.47559-.02539.70605-.04443.32812-.02783.66797-.05811.99707-.04053.70215.03516,1.41504.02441,2.10352.01465.43945-.00684.89258-.01465,1.33887-.00781.81836.01025,1.64844.00781,2.45215.00684.63086-.00146,1.25977-.00293,1.88965.00098.0957.00098.19727.03662.30469.07422.0332.01123.06641.02295.09863.0332.00391.17773.00879.35107.0127.52246.01172.43799.02246.85205.02051,1.26904-.00293.46631-.05176.51855-.5166.51855h-.01465l-1.33691-.00293c-1.33691-.00244-2.67383-.00537-4.01074-.00146-.39941.00146-.80762.01953-1.20215.03662-.1875.0083-.37598.0166-.56543.02344l-.09668.00342v3.80566l.44727.01123c.2627.00684.52051.01416.77832.01416.57227,0,1.14453.00049,1.7168,0,1.0127-.00146,2.02734-.00244,3.04199.00293.0957.00049.19922.03418.30859.07031.03418.01074.06738.02148.10156.03223l.0127.47021c.01172.40967.02344.80371.02441,1.19775.00098.30566-.01367.48584-.08789.56055-.07324.07324-.24609.08496-.55469.08496-1.37793-.00439-2.75586-.00439-4.13281-.00537h-1.21582c-.06445,0-.12891.00391-.20898.0083l-.2334.0127v5.83008l.07227.02148c.27051.0791.54004.06689.80273.05371.06641-.00293.13379-.00635.20117-.0083.65625-.01562,1.32324-.01318,1.9707-.00879l.46777.00195c.40039.00098.7998.00342,1.2002.00586.85547.00537,1.7373.01074,2.60742.00244.2002.00049.35938.02051.50195.13428l.01367.39746c.01172.34326.02441.68555.03418,1.02734.00488.16553.00488.29102-.00293.40625-.02441.39014-.0918.45361-.48633.45361v-.00098Z"/>
      <path class="v" d="M41.52051,77.75195c-.03027.31934-.1084.38916-.43555.39062-.30371.00098-.60742,0-.91113-.00146-.33301-.00195-.66602-.00244-.99805-.00049-1.61621.01074-3.23145.02441-4.84668.04053-.10938.00049-.21875.01318-.32422.0249-.04688.00537-.09375.01025-.14062.01465l-.09082.0083v3.80127l.45996.00879c.26465.00488.52051.01074.77637.01074l1.5293-.00098c1.0752-.00098,2.15039-.00293,3.22656.00293.09473.00098.19727.03613.30469.07422.0332.01172.06641.02344.09961.03418.00293.16699.00781.33203.01172.49414.01074.42969.02051.83594.01953,1.24512-.00098.25488-.01562.42773-.08984.49902-.07031.06836-.22949.08301-.48047.08301h-.01758c-1.33594-.00391-2.67285-.00586-4.00879-.00684l-1.81445-.00098-.00391.09473c-.06934,1.60156-.05566,3.21973-.04395,4.78516.00879,1.1377.01758,2.31348-.00391,3.48438h-2.38086l-.00879-.07324c-.0127-.10352-.02539-.20117-.02539-.2959,0-1.11719.00098-2.23438.00293-3.35254.00098-1.50977.00293-3.01855.00098-4.52734-.00098-.94727-.00684-1.89355-.01367-2.84033-.00488-.81396-.00977-1.62793-.01172-2.44189-.00293-1.04102.00586-2.09912.01562-3.09326.00195-.271.05859-.33301.37988-.41113.55078-.13428,1.12012-.1123,1.67188-.09131.23926.0083.48633.01807.73145.01514,1.33203-.01758,2.57324-.02881,3.79199-.03467,1.26758-.00537,2.30371-.00146,3.2666.01318.07422.00146.16113.04688.24512.09082.02344.01221.04688.0249.07031.03564l.01562.44727c.01172.3457.02441.67725.03418,1.02588.00488.14844.00879.30127-.00488.44775h.00098Z"/>
      <path class="v" d="M45.23438,92.75781c-.00195-.0293-.00488-.05859-.00781-.08594-.00977-.11719-.01855-.23145-.01855-.34668,0-2.02148.00195-4.04297.00391-6.06445l.00293-2.78418c.00098-1.22656.00195-2.4541.00195-3.68115,0-.42236-.00098-.84375-.00195-1.26562-.00098-.74414-.00293-1.48828,0-2.23242.00098-.13721.03027-.28662.08203-.41992.01758-.04346.0957-.10059.13086-.10254.54004-.03125,1.08203-.05176,1.58887-.07129l.4043-.01562c.21094.20898.20898.40576.20801.63281l.00098,3.04395c.00098,1.49658.00098,2.99365.00098,4.49072l-.00391,6.0459c0,.06348.00391.12695.00977.20996l.01465.25195,4.24902-.00098c1.06445-.00098,2.12793-.00293,3.19141.00488.09473.00098.19531.03711.30273.07617.03125.01172.06348.02441.0957.03516.00293.17383.00684.34473.01172.51367.01074.44238.02148.86133.01855,1.2832-.00293.46191-.05371.50977-.54004.51172-.72266.00195-1.44629.00586-2.16992.00879-1.2168.00586-2.43359.0127-3.65137.0127h-.03711c-.91895,0-1.83789-.01074-2.75684-.02148l-.9502-.00977c-.04688-.00098-.09277-.00781-.15039-.01562-.00977-.00195-.01953-.00293-.03027-.00488v.00098Z"/>
      <path class="v" d="M64.15137,92.80664l-.0127-.00195-.0127.00195c-.65332.0918-1.37109-.05273-2.19043-.43652-.99512-.46582-1.9873-1.0498-2.50879-2.16602-.10547-.22754-.23242-.44727-.35645-.65918l-.03809-.06641c-.20605-.35742-.2959-.74414-.3916-1.15332-.03223-.13965-.06543-.28027-.10254-.41992-.21484-.79102-.36426-1.62695-.44922-2.50586-.02734-.28711-.05566-.58301.00488-.84668.0625-.27148.05371-.54199.04492-.80273-.00879-.24023-.0166-.4873.0332-.73047.11426-.55957.18457-1.00879.22266-1.41162.11426-1.23486.56934-2.43262,1.43164-3.77002.7793-1.20898,1.94824-1.97217,3.57227-2.33301.3877-.08594.83496-.10254,1.29395-.04785l.0498.00635c.55176.06543,1.12207.1333,1.62012.4082.13867.07568.28125.14551.42383.21484.38379.18652.74609.36377,1.03418.67188.67773.72705,1.1416,1.38477,1.46094,2.0708.10547.22852.2041.46729.29785.69775.07324.17725.14551.35498.22266.53027.32715.74023.45996,1.52686.55469,2.26709.18555,1.44727.14746,2.94238-.11719,4.57227-.0752.46484-.16113.99219-.45508,1.43066-.08887.13184-.12988.28809-.16992.43848-.0127.04492-.02344.09082-.03711.13379-.15723.52539-.4248,1.0459-.7959,1.54883-.33301.45117-.74512.87793-1.19141,1.23438-.06445.05176-.12793.10449-.19043.15625-.23535.19727-.47852.40039-.78613.53125-.66797.28516-1.4834.56055-2.46191.43652ZM64.36426,90.58496c.58105,0,1.12891-.18652,1.55762-.53711.4834-.39453.90137-.94629,1.24219-1.63672.46094-.93555.56348-1.9502.66211-2.93066l.03613-.35449c.02637-.24805.02051-.5.01367-.79004-.00293-.14551-.00684-.30176-.00684-.47559.07031-.7334-.08203-1.62207-.23145-2.39746-.19238-1.00781-.61523-1.94385-1.29199-2.8623-.24707-.33496-.54492-.56885-.93555-.73584-.28516-.12256-.5625-.16943-.85547-.21875l-.13184-.02295c-.71191-.125-1.28223.12549-1.69922.35742-.70898.39551-1.20996,1.02783-1.48828,1.88086-.33105,1.00732-.53516,1.99756-.60645,2.94336-.06055.78906-.11328,1.63086-.03613,2.46973l.0166.18164c.07812.86816.15918,1.7666.44629,2.62793.45117,1.35449,1.38379,2.17871,2.77246,2.44824.17969.03516.36035.05273.53613.05273Z"/>
      <path class="v" d="M81.31348,76.50146l.08984-.30664c.08398-.29102.24512-.41553.56152-.39795.54297.02148,1.08594.02588,1.61719.01367h.01562c.17578,0,.27637.0708.34668.24023.06934.16699.14746.35547.19629.5459.07227.27979.13965.56152.20703.84229.10645.44238.2168.8999.34375,1.3457.20508.72656.42578,1.46143.63965,2.17285.14648.48877.29395.97705.43652,1.46631.25781.87988.50977,1.76172.7627,2.64258l.28223.9873c.11523.40137.23438.81641.44434,1.21582l.14355.27246.12012-.85352c.05664-.40039.11328-.80176.17285-1.20117.0752-.49512.15137-.98926.22754-1.4834.10449-.67969.20898-1.35938.31055-2.03906.14941-1.00879.28711-2.00781.41406-2.93701.06641-.48926.13086-.97852.19531-1.46729.06445-.4917.12891-.98291.19629-1.47363.04004-.29785.12305-.37744.40234-.38623.39258-.01318.90918-.0249,1.42383-.00146.12988.00537.26562.04785.40918.0918.05078.01562.10254.03174.15527.04639.00195.0498.00391.09912.00488.14746.00586.14746.01172.28613-.00781.41797-.1377.93164-.27734,1.86328-.41797,2.79492-.1582,1.04639-.31543,2.09326-.46875,3.14014-.06152.42188-.11133.85254-.16016,1.26855-.04395.38281-.08887.7666-.14258,1.14844-.09082.64551-.18848,1.28906-.28613,1.93359-.07812.50977-.15527,1.01953-.22949,1.53027-.125.8623-.24609,1.72559-.36816,2.58887l-.20605,1.45703c-.01367.10156-.02734.19727-.05273.28906-.04395.15527-.13477.22559-.2959.22559-.22852,0-.45703.00195-.68555.00293-.45898.00391-.93359.00684-1.39844-.00391-.36035-.00977-.45508-.08984-.56348-.47656l-.36816-1.32227c-.51074-1.83105-1.02051-3.66016-1.53711-5.48926-.30078-1.06543-.60938-2.13086-.92676-3.22754l-.5-1.73145-.11523.22021c-.03418.06494-.06445.11816-.08984.16357-.04785.0835-.08594.1499-.10742.22363l-.2041.68604c-.25977.87646-.5293,1.78369-.7793,2.68018-.23633.84961-.4668,1.7002-.69629,2.55176-.21875.81055-.43848,1.62207-.66309,2.43164-.1543.55859-.31836,1.11523-.48145,1.6709-.13379.45117-.2666.90234-.39355,1.35449-.05566.19629-.14648.26758-.32031.26562-.60156-.00293-1.20215-.00293-1.81348-.00195h-.65137c-.01465-.03809-.03027-.07617-.04492-.1123-.0459-.11035-.08887-.21387-.10352-.31543-.13477-.9248-.26465-1.85059-.39453-2.77539-.1123-.79883-.22461-1.59766-.33984-2.39648-.08789-.6084-.17969-1.21777-.27246-1.8252-.08594-.56641-.17188-1.13281-.25391-1.69922-.12793-.88281-.25195-1.76611-.37598-2.6499-.09375-.66602-.1875-1.33203-.2832-1.99805-.10645-.74902-.21777-1.49756-.3291-2.24609l-.09473-.63574c-.02246-.15527-.03809-.30713.00879-.36279.03711-.04297.1377-.06299.33789-.06641.44434-.00732.8877-.00586,1.3457-.00391l.53125.00098c.0166.04248.03516.08301.05176.12256.04883.11328.0918.21094.10742.30908.22949,1.51807.45801,3.08008.68066,4.6416.19141,1.34473.37988,2.69043.56836,4.03613l.3252,2.31641c.00488.03418.0166.0625.03516.10449.00977.02344.02344.05371.04004.09668l.10254.25684.08496-.2627c.03418-.10547.06738-.20508.09863-.29883.06445-.19141.12207-.36621.17188-.54199.5293-1.84766,1.05762-3.69531,1.5791-5.54395.2002-.70898.39551-1.41895.59082-2.12891.12305-.44971.24707-.89941.37207-1.34912.08789-.31689.17969-.63281.27148-.94873v.00049Z"/>
      <path class="v" d="M105.05859,92.77148c-.35352.00098-.70703,0-1.06055-.00098l-5.71582-.00098h-3.02637c-.00293-.03906-.00586-.07715-.00879-.11426-.01074-.12305-.01953-.23438-.01953-.34473.00098-1.88867.00293-3.77734.00488-5.66602l.00195-2.91211c.00195-1.31348.00293-2.62793.00293-3.94189l-.00195-1.35938c-.00098-.71191-.00293-1.42383-.00098-2.13525,0-.13184.0332-.26953.0625-.37451.02637-.09326.06152-.13525.2002-.13818.23633-.00488.47559-.02539.70605-.04443.32812-.02783.66797-.05811.99707-.04053.70215.03516,1.41504.02441,2.10352.01465.43945-.00684.89258-.01465,1.33887-.00781.81836.01025,1.64844.00781,2.45215.00684.63086-.00146,1.25977-.00293,1.88965.00098.0957.00098.19727.03662.30469.07422.0332.01123.06641.02295.09863.0332.00391.17773.00879.35107.0127.52246.01172.43799.02246.85205.02051,1.26904-.00293.46631-.05176.51855-.5166.51855h-.01465l-1.33691-.00293c-1.33691-.00244-2.67383-.00537-4.01074-.00146-.39941.00146-.80762.01953-1.20215.03662-.1875.0083-.37598.0166-.56543.02344l-.09668.00342v3.80566l.44727.01172c.2627.00586.52051.01367.77832.01367.57227,0,1.14453.00098,1.7168,0,1.0127-.00098,2.02734-.00293,3.04199.00293.0957,0,.19922.03418.30859.07031.03418.01074.06738.02148.10156.03223l.0127.46973c.01172.41016.02344.80469.02441,1.19824.00098.30566-.01367.48535-.08789.56055-.07324.07324-.24609.08496-.55469.08496-1.37793-.00488-2.75586-.00488-4.13281-.00488h-1.21582c-.06445,0-.12891.00293-.20898.00781l-.2334.0127v5.83008l.07227.02148c.27051.0791.54004.06641.80273.05371.06641-.00293.13379-.00684.20117-.00781.65625-.0166,1.32324-.01367,1.9707-.00977l.46777.00195c.40039.00195.7998.00391,1.2002.00586.85547.00586,1.7373.01074,2.60742.00293.2002,0,.35938.02051.50195.13477l.01367.39648c.01172.34375.02441.68555.03418,1.02734.00488.16602.00488.29102-.00293.40625-.02441.39062-.0918.4541-.48633.4541v-.00098Z"/>
      <path class="v" d="M111.95898,88.46289l-.00586.09277c-.04785.72949-.03906,1.46875-.03027,2.18359.00781.63672.01562,1.29492-.01562,1.95508-.0332.00781-.06543.01562-.09766.02344-.11426.02832-.22266.05371-.32617.05664-.56543.01562-1.08984.01758-1.60547.00684-.35254-.00684-.37305-.0293-.37402-.40234-.00098-.91016,0-1.81934,0-2.72852.00098-.86816.00098-1.73633,0-2.60449,0-.34863-.00586-.69824-.0127-1.04688-.00977-.63672-.02148-1.29492.00293-1.93945.03027-.79102.02148-1.59473.0127-2.37109-.00684-.61084-.0127-1.24219-.00098-1.86279.02246-1.13867.0166-2.25684.00195-3.58545-.00293-.21631.00879-.37402.17871-.54492h1.19629c1.25293,0,2.52832-.00049,3.80273.00049.58984.00049,1.12695.18604,1.62695.37646.7334.2793,1.18945.82129,1.66895,1.44824.74023.96973,1.15137,2.12598,1.29395,3.63965.03809.4043.00781.81104-.02051,1.20312-.01367.17676-.02637.35352-.0332.53125-.02344.54395-.15137,1.1084-.38086,1.67773-.31152.76953-.63379,1.56543-1.25977,2.15723-.19043.17969-.39258.35449-.58789.52344-.14453.12598-.29004.25098-.43164.37988-.06445.05762-.11523.12793-.16895.20215-.02637.03613-.05273.07324-.08398.11328l-.0498.0625.05176.06152c.08691.10449.16895.20996.25098.31543.18359.23535.3584.45801.56641.65625.87207.82812,1.59277,1.40332,2.33691,1.8623.12305.07715.25293.14355.38184.21191.13184.06836.26855.13965.39355.21875.1123.07031.1748.14258.18652.21484.01074.06445-.01758.14062-.08691.22559-.40137.49902-.82031.84863-1.28223,1.06836-.22656.10742-.44141.10547-.65625-.00195-.55371-.28223-1.04883-.5459-1.48926-.91699-.95801-.80566-1.79297-1.76172-2.60059-2.68555l-.31055-.35645c-.2666-.30273-.52734-.43945-.84961-.43945-.05273,0-.10547.00293-.16113.00977-.19141.02441-.38379.01855-.60742.0127-.10547-.00293-.21484-.00586-.33008-.00586h-.09277l-.00098.00098ZM111.95996,86.25586h1.2998c.27148,0,.53906-.00098.80664-.00195.72168-.00293,1.27246-.25098,1.63672-.7373.33594-.44824.73828-1.05859.86816-1.79785.02051-.11621.04492-.23145.07031-.34668.04492-.21289.0918-.43457.1123-.65723.08008-.88379.12988-1.74609-.13281-2.58789-.1416-.4541-.27539-.85938-.47852-1.22949-.2334-.42383-.65918-.93701-1.36426-.97607-.62305-.0332-1.23633-.02637-1.88574-.01904-.27441.00391-.55176.00684-.83301.00684h-.09961v8.34668Z"/>
      <path class="v" d="M56.56934,119.64453c-.68848.40332-1.29004.62988-1.89258.71484-.60547.08594-1.17383.08301-1.73438-.00781-.63379-.10156-1.25977-.3252-1.96973-.70605-.28418-.15137-.53418-.39258-.74219-.6084-.56445-.58496-1.03418-1.27441-1.39746-2.04785-.0957-.20508-.1543-.45703-.1748-.74902-.00977-.13867.00977-.23535.06152-.29199.05078-.05566.14355-.08594.2832-.0918.20312-.00684.4082-.00879.6123-.00879.1875,0,.37402.00195.55762.00391.20312.00195.40625.00293.60938.00391.12695,0,.20605.05664.27441.19629l.02246.04492c.04395.08887.08496.17285.10742.25879.14453.53809.45898.95898.96191,1.28613.41211.26855.82422.51172,1.33008.55371.07227.00586.14453.01465.2168.02344.16699.01953.33984.03906.51074.02832,1.05176-.06641,1.84863-.67871,2.1875-1.68262.35156-1.04199.11914-1.68945-.8877-2.47266-.45312-.35254-.9502-.64746-1.43066-.93359-.26562-.15723-.53906-.32031-.80176-.49023-.68555-.44434-1.36914-.91895-2.03027-1.37695-.26172-.18262-.52441-.36426-.78711-.54492-.47949-.33008-.88965-.76562-1.25195-1.33398-.45215-.70508-.62695-1.46387-.53613-2.31738.15723-1.49023.97363-2.57812,2.57129-3.42578.49316-.26074,1.03027-.51367,1.62891-.58984.53027-.06836,1.10059-.11523,1.66797.00391l.02832.00586c.57617.12109,1.12012.23535,1.64648.49316.72656.35547,1.23047.92676,1.62695,1.43848.22266.28613.42383.62012.65332,1.08594.09961.19824.16895.4502.20703.74609.03223.24219.01465.38672-.05371.46875-.07227.08496-.22461.12891-.49414.14062-.26074.0127-.52734.00879-.78613.00684-.11328-.00195-.22852-.00293-.34277-.00293h-.80762c-.10742-.60449-.28418-1.02734-.58398-1.40137-.28223-.35254-.66602-.5957-1.1748-.74219-1.04297-.30273-2.0127-.09375-2.80566.60449-.1875.16504-.33789.41016-.39355.63965-.22266.92871-.05957,1.65039.49902,2.20703.32422.32324.66797.60352,1.01953.83203.44336.28906.90234.57227,1.34473.8457.51172.31641,1.04102.64258,1.5498.98047.16797.11133.34082.21387.51367.31641.32324.19238.65723.38965.94727.64551.48438.42871,1.03027.94238,1.36035,1.61328.01758.03418.03125.07129.04492.10742.0293.07812.06055.15918.11719.22852.30859.375.30176.82617.29395,1.2627-.0293,1.77539-.82812,3.13477-2.37695,4.04102v-.00195Z"/>
      <path class="v" d="M73.20117,112.16699c-.01367.40918-.02832.83203-.03125,1.24805-.00781,1.08008-.00586,2.15918-.00293,3.23926.00098.47754.00195.95508.00195,1.43164v2.17773c-.50098.13965-1.00195.12402-1.52832.10547-.1748-.00488-.35254-.01172-.5332-.01172-.11328,0-.22656.00195-.3418.00879l-.00391-.36719c-.00391-.37793-.00781-.74023-.01074-1.10254-.00195-.33496-.00293-.66797-.00391-1.00293l-.00391-1.15527c-.00195-.2998-.00293-.59961-.00391-.89941-.00098-.34082,0-.68066,0-1.03223v-.65137h-5.31348l-.00293.09668c-.02832,1.01465-.02246,2.05273-.0166,3.05566.00586.96973.01172,1.96973-.0127,2.96973-.54297.12598-1.07715.1084-1.63867.08789-.24414-.00879-.49707-.01855-.74902-.0127l-.00391-.05078c-.00781-.08594-.01465-.15918-.01465-.2334.00098-.98828.00195-1.97754.00293-2.9668.00195-1.66797.00391-3.33691.00195-5.00488-.00098-.93555-.00684-1.86914-.01367-2.80371-.00586-.83301-.01074-1.66602-.0127-2.49902-.00293-.98926.00391-2.03418.02148-3.10449.00195-.08105.0332-.16797.07324-.27734.01465-.04102.03027-.08496.0459-.13086l.52734-.00098c.42871-.00195.83301-.00293,1.23828.00293.51074.00879.5459.0459.5459.57031,0,1.43066.00098,2.86133.00195,4.29199l.00195,3.41406.0625.02441c.02832.01172.05566.02539.08203.03809.06934.03418.1416.07031.22363.07031,1.2793.00586,2.55762.00684,3.87207.00488h1.04688l.00586-.09375c.00879-.13379.01953-.26367.0293-.3916.02246-.2793.04395-.54395.04297-.81152-.00098-.46191-.01074-.92285-.02051-1.38379-.00977-.45508-.01953-.90918-.02051-1.36328-.00195-.58301.00195-1.16602.00488-1.75.00391-.69043.00781-1.38281.00293-2.07422-.00098-.20801.00879-.36719.14062-.50391l.40039-.01367c.33984-.01172.68262-.02441,1.02441-.03418.1123-.00391.25879-.00586.40723.00293.39355.02441.45215.08887.45312.49023.00098.23926-.00098.47852-.00098.71777-.00195.38086-.00391.76172,0,1.14258.00586.61621.01367,1.23242.02246,1.84863.01367,1.06738.02832,2.16992.03125,3.25586.00098.47754-.01562.96289-.03223,1.43359l.00098-.00195Z"/>
      <path class="v" d="M87.64551,120.35645c-.35352.00098-.70703,0-1.06055-.00098l-5.71582-.00098h-3.02637c-.00293-.03906-.00586-.07715-.00879-.11426-.01074-.12305-.01953-.23438-.01953-.3457.00098-1.8877.00293-3.77637.00488-5.66504l.00195-2.91211c.00195-1.31348.00293-2.62793.00293-3.94141l-.00195-1.36035c-.00098-.71191-.00293-1.42383-.00098-2.13477,0-.13184.0332-.26953.0625-.37402.02637-.09375.06152-.13574.2002-.13867.23633-.00488.47559-.02539.70605-.04492.32812-.02734.66797-.05762.99707-.04004.70215.03516,1.41504.02441,2.10352.01465.43945-.00684.89258-.01465,1.33887-.00781.81836.01074,1.64844.00781,2.45215.00684.63086-.00195,1.25977-.00293,1.88965.00098.0957.00098.19727.03613.30469.07422.0332.01074.06641.02344.09863.0332.00391.17773.00879.35156.0127.52246.01172.4375.02246.85156.02051,1.26855-.00293.4668-.05176.51855-.5166.51855h-.01465l-1.33691-.00293c-1.33691-.00195-2.67383-.00488-4.01074-.00098-.39941.00098-.80762.01953-1.20215.03711-.1875.00781-.37598.01562-.56543.02246l-.09668.00391v3.80566l.44727.01172c.2627.00586.52051.01367.77832.01367.57227,0,1.14453.00098,1.7168,0,1.0127-.00098,2.02734-.00293,3.04199.00293.0957,0,.19922.03418.30859.07031.03418.01074.06738.02148.10156.03223l.0127.46973c.01172.41016.02344.80469.02441,1.19824.00098.30566-.01367.48633-.08789.56055-.07324.07324-.24609.08496-.55469.08496-1.37793-.00488-2.75586-.00488-4.13281-.00488h-1.21582c-.06445,0-.12891.00293-.20898.00781l-.2334.0127v5.83008l.07227.02148c.27051.0791.54004.06641.80273.05371.06641-.00293.13379-.00684.20117-.00781.65625-.0166,1.32324-.01367,1.9707-.00977l.46777.00195c.40039.00195.7998.00391,1.2002.00586.85449.00586,1.7373.01074,2.60742.00293.2002,0,.35938.02051.50195.13477l.01367.39648c.01172.34375.02441.68555.03418,1.02734.00488.16602.00488.29102-.00293.40625-.02441.39062-.0918.4541-.48633.4541v-.00098Z"/>
      <path class="v" d="M92.08496,119.9043c0-1.12109.00195-2.24219.00293-3.36328.00195-1.47559.00293-2.95117.00195-4.42578-.00195-.92773-.00684-1.85547-.01172-2.78223-.00488-.86035-.00977-1.71973-.01172-2.57812-.00098-1.0498.00586-2.07422.02344-3.04492.00195-.0957.03613-.19629.07617-.31152.01367-.03906.02734-.07812.04004-.12012h1.44629c1.25098,0,2.48926-.00098,3.72559.00098.49902.00098.98438.11816,1.44336.34766.0957.04785.19531.08984.29492.13184.27734.11426.53906.22363.7207.4707.14355.19531.29688.38477.44922.5752.23828.2959.48535.60156.68945.92383.58984.92676.80273,1.96387.94336,3.2373.1543,1.39746.18457,2.76562.08984,4.06641l-.02441.3457c-.07031,1.03223-.14355,2.09961-.54688,3.07129l-.02344.05664c-.31152.75-.63281,1.52637-1.23242,2.11328-.3457.33789-.70215.6875-1.09473.96387-.38965.27539-.91699.59961-1.54883.66992-.91309.10059-1.83301.11523-2.63574.11328-.28613,0-.57227.00098-.85938.00195-.50781,0-1.01562.00195-1.52246-.00195-.29004-.00293-.43555-.15723-.43555-.46094v-.00098ZM94.54004,105.5332v12.65918l.10352-.00391c.24609-.00977.48926-.02051.73047-.03223.58008-.02734,1.12695-.05273,1.68457-.05371.5918-.00098.96484-.36719,1.22363-.68652.49219-.60645.83887-1.35059,1.09082-2.33887.26367-1.03223.37305-2.14941.35547-3.62207l-.00195-.19629c-.00488-.50293-.00977-1.02246-.10059-1.52246-.15527-.84961-.34668-1.90723-.73633-2.87988-.37109-.92871-1.02148-1.3877-1.94336-1.3623-.15332.00391-.30566.00977-.45898.01562-.50684.02148-1.03125.04102-1.54395-.01758-.07227-.00879-.14844.00391-.21973.01562-.03027.00586-.0625.01074-.0957.01465l-.08887.01074h.00098Z"/>
    </g>
  </g>
  <g id="f" data-name="Layer 8">
    <g>
      <g>
        <path class="s" d="M153.82,78.78c-2.82-1.17-4.83,1.67-5.22,3.59-.6,2.99-2.86,4.51-5.74,5.02-2.89.53-4.37,2.6-5.26,4.5.36-1.32,1-2.88,1.89-5.41.25-.72.44-1.45.56-2.19,1.47-2.77,3.95-2.11,5.55-2.85,1.87-.87,2.31-2.95,4.05-3.76,1.26-.6,3.75-.58,4.17,1.1Z"/>
        <path class="i" d="M148.6,82.37c.39-1.92,2.4-4.76,5.22-3.59-4.6.66-2.87,9.62-7.09,12.4-4.13,2.73-6.14-.04-9.39,1.91.05-.39.14-.78.26-1.2.89-1.9,2.37-3.97,5.26-4.5,2.88-.51,5.14-2.03,5.74-5.02Z"/>
        <path class="i" d="M140.05,84.29c-.12.74-.31,1.47-.56,2.19-.89,2.53-1.53,4.09-1.89,5.41-.12.25-.22.49-.32.72-.05-4.14-1.89-7.85-4.29-10.96-3.47-4.49-1.62-10.78,4.86-16.66-2.48,4.33-2.23,6.9-.07,9.77,2.05,2.73,2.81,6.21,2.27,9.53Z"/>
        <path class="aa" d="M137.28,92.61c-.08.22-.17.43-.24.63-1.21-3.32-3.46-2.34-6.49-5.56-2.42-2.56-3.89-6.26-2.95-10.82,1.08-5.21,4.01-8.68,10.25-11.87-6.48,5.88-8.33,12.17-4.86,16.66,2.4,3.11,4.24,6.82,4.29,10.96Z"/>
      </g>
      <g>
        <path class="ai" d="M137.25,93.9c.02-.26.03-.52.03-.78.01-.17.01-.34,0-.51-.05-4.14-1.89-7.85-4.29-10.96-3.47-4.49-1.62-10.78,4.86-16.66"/>
        <path class="ai" d="M140.04,84.31c0-.01.01-.01.01-.02,1.47-2.77,3.95-2.11,5.55-2.85,1.87-.87,2.31-2.95,4.05-3.76,1.26-.6,3.75-.58,4.17,1.1-4.6.66-2.87,9.62-7.09,12.4-4.13,2.73-6.14-.04-9.39,1.91l-.06.03c-.07.05-.15.1-.23.15-.01.01-.02.01-.03.02"/>
        <path class="ai" d="M137.02,93.29c.01-.02.01-.03.02-.05.07-.2.16-.41.24-.63.1-.23.2-.47.32-.72.89-1.9,2.37-3.97,5.26-4.5,2.88-.51,5.14-2.03,5.74-5.02.39-1.92,2.4-4.76,5.22-3.59"/>
        <path class="ai" d="M137.25,93.9c-.06-.23-.13-.44-.2-.63,0-.01-.01-.02-.01-.03-1.21-3.32-3.46-2.34-6.49-5.56-2.42-2.56-3.89-6.26-2.95-10.82,1.08-5.21,4.01-8.68,10.25-11.87-2.48,4.33-2.23,6.9-.07,9.77,2.05,2.73,2.81,6.21,2.27,9.53-.12.74-.31,1.47-.56,2.19-.89,2.53-1.53,4.09-1.89,5.41-.12.42-.21.81-.26,1.2-.05.27-.08.54-.09.81Z"/>
      </g>
    </g>
    <g>
      <g>
        <path class="p" d="M36.75,56.62c-3.51-.21-5.53,3.48-8.49,2.72-2.13-.55-1.87-3.14-4.08-4.18-.34-.16-.79-.2-1.29-.16.24-.48.37-1.05.39-1.62.53-.2,1.09-.34,1.68-.41,2.81-.31,4.38,2.77,5.75,3.47,1.69.85,3.93-.21,6.04.18Z"/>
        <path class="s" d="M28.26,59.34c2.96.76,4.98-2.93,8.49-2.72-3.7,1.36-2.85,3.69-5.54,5.4-2.76,1.75-5.96,1.06-7.65-.94-1.32-1.56-.56-3.58-2.31-4.61.53-.21.98-.52,1.31-.94.13-.16.24-.34.33-.53.5-.04.95,0,1.29.16,2.21,1.04,1.95,3.63,4.08,4.18Z"/>
        <path class="y" d="M16.94,53.35c-.05-.19-.32-1.31.13-2.61.3-.87.94-1.3.88-2.38-.04-.93-.78-2.11-2.03-2.68,1.41.15,2.38.76,2.71,1.57-.51-1.19-.21-2.24.21-3.19.43-.95.1-2.83-.61-3.86.93,1.02,1.46,1.93,1.51,3.1.06,1.27-.38,1.63-.2,2.52.52,2.46,2.79,3.16,3.6,6.14.12.45.17.93.14,1.42-.02.57-.15,1.14-.39,1.62-.09.19-.2.37-.33.53-.33.42-.78.73-1.31.94-1.05.41-2.4.37-3.58-.23-.78-.4-1.29-1.33-1.37-2.04-.07-.59-.42-1.07-.93-1.34.6-.31,1.44.04,1.57.49Z"/>
      </g>
      <g>
        <path class="ai" d="M23.28,53.38c.53-.2,1.09-.34,1.68-.41,2.81-.31,4.38,2.77,5.75,3.47,1.69.85,3.93-.21,6.04.18-3.7,1.36-2.85,3.69-5.54,5.4-2.76,1.75-5.96,1.06-7.65-.94-1.32-1.56-.56-3.58-2.31-4.61"/>
        <path class="ai" d="M22.89,55c.5-.04.95,0,1.29.16,2.21,1.04,1.95,3.63,4.08,4.18,2.96.76,4.98-2.93,8.49-2.72"/>
        <path class="ai" d="M16.95,53.38c0-.01,0-.02-.01-.03-.05-.19-.32-1.31.13-2.61.3-.87.94-1.3.88-2.38-.04-.93-.78-2.11-2.03-2.68,1.41.15,2.38.76,2.71,1.57"/>
        <path class="ai" d="M19.15,51.65c-.24-.72-.24-1.22-.2-1.71.03-.36.08-.7.07-1.11-.02-.62-.19-1.14-.39-1.58-.51-1.19-.21-2.24.21-3.19.43-.95.1-2.83-.61-3.86.93,1.02,1.46,1.93,1.51,3.1.06,1.27-.38,1.63-.2,2.52.52,2.46,2.79,3.16,3.6,6.14.12.45.17.93.14,1.42-.02.57-.15,1.14-.39,1.62-.09.19-.2.37-.33.53-.33.42-.78.73-1.31.94-1.05.41-2.4.37-3.58-.23-.78-.4-1.29-1.33-1.37-2.04-.07-.59-.42-1.07-.93-1.34.6-.31,1.44.04,1.57.49"/>
      </g>
    </g>
    <g>
      <g>
        <path class="ab" d="M48.48,133.28c-.98,2.05-1.65,3.64-4.44,4.1-2.46.41-3.52-1.5-5.1-1.86-1.81-.42-3.29.24-4.91-.19-.15-.04-.29-.09-.44-.15-.99-.39-1.91-1.03-2.68-1.81.29.03.58.05.86.05.51.02,1,0,1.45-.05.46.18.89.29,1.28.33,2.54.23,3.44-1.26,5.16-.93,1.88.35,3.26,2.51,4.56,2.6,1.74.14,3.18-1.05,4.26-2.09Z"/>
        <path class="ah" d="M44.55,133.04c1.14.66,2.67.64,3.93.24-1.08,1.04-2.52,2.23-4.26,2.09-1.3-.09-2.68-2.25-4.56-2.6-1.72-.33-2.62,1.16-5.16.93-.39-.04-.82-.15-1.28-.33,2.25-.24,3.92-1.21,5.05-2.61.09-.11.17-.22.25-.34.76-.24,1.56-.34,2.53-.09,1.28.33,2.15,1.93,3.5,2.71Z"/>
        <path class="h" d="M38.01,120.55c.36-.6.5-1.28,1.52-2.27,1.14-1.1,2.09-.97,3.86.08-1.55.65-3.13,2.78-3.33,5.33-.1,1.21.24,4.21-1.54,6.73-.08.12-.16.23-.25.34-1.13,1.4-2.8,2.37-5.05,2.61-.45.05-.94.07-1.45.05-.28,0-.57-.02-.86-.05h-.01c-.3-.03-.59-.07-.9-.12h-.01l-.36-.06c.02-.06.05-.12.07-.18.07-.18.13-.35.2-.53.02-.07.05-.13.07-.2.1-.27.19-.54.27-.82l.18-.6c.23-.82.41-1.65.54-2.49v-.03h.01c.28-1.87.82-3.18,2.32-4.6,1.77-1.69,2.74-1.37,4.16-2.54.25-.21.42-.42.56-.65Z"/>
        <path class="ab" d="M38.36,113.17c.08,1.8-.77,3.23-.88,5.04-.34-1.43-.73-2.85-1.45-4.1.7-.56,1.57-.97,2.33-.94Z"/>
        <path class="j" d="M37.48,118.21c.18.78.34,1.57.53,2.34-.14.23-.31.44-.56.65-1.42,1.17-2.39.85-4.16,2.54-1.5,1.42-2.04,2.73-2.32,4.6h-.01c.07-.42.11-.85.15-1.26.16-2.08-.19-4.24-1.28-6.02-.37-.59-.8-1.01-1.22-1.42.23-2.51,1.18-4.55,2.53-6.33.03-.05.06-.08.09-.12.69-.89,1.44-1.3,1.57-1.32.45-.03.2,1.24.64,1.34.26.06.77-.64.98-.8.39-.29.88.61,1.16.99.16.23.31.47.45.71.72,1.25,1.11,2.67,1.45,4.1Z"/>
        <path class="af" d="M34.03,135.33c1.82,2,2.42,4.11,1.92,7.13-.2,1.21-.35,3.44-.16,4.52.17.92.54,1.81,1.17,2.51-1.89-.98-4.24-3.11-4.78-4.96-.93-3.17.85-4.08.57-6.62-.21-1.82-1.15-3.32-2.75-4.66.31.05.6.09.9.12h.01c.77.78,1.69,1.42,2.68,1.81.15.06.29.11.44.15Z"/>
        <path class="ab" d="M32.18,144.53c.54,1.85,2.89,3.98,4.78,4.96-2.26-.43-4.26-1.15-5.9-2.56-1.8-1.56-2.94-4.05-2.99-6.06-.08-3.09,1.41-4.46,1.39-5.8-.02-.67-.16-1.27-.43-1.8.2-.02.4-.04.6-.08l.36.06h.01c1.6,1.34,2.54,2.84,2.75,4.66.28,2.54-1.5,3.45-.57,6.62Z"/>
        <path class="r" d="M30.76,111.9c.46.14.39,1.31.38,1.41-1.35,1.78-2.3,3.82-2.53,6.33-.45-.43-.91-.86-1.29-1.49-.39-.63-.74-1.69-1.16-2.44l.02-.01c.62-1.07,1.94-2.3,2.91-3.06.52-.42,1.16-.89,1.67-.74Z"/>
        <path class="ah" d="M29.83,121.06c1.09,1.78,1.44,3.94,1.28,6.02-.04.41-.08.84-.15,1.26v.03c-.13.84-.31,1.67-.54,2.49l-.18.6c-.08.28-.17.55-.27.82-.02.07-.05.13-.07.2-.07.18-.13.35-.2.53-.02.06-.05.12-.07.18-.2.04-.4.06-.6.08-1.86.15-3.78-.46-5.2-1.69-1.57-1.35-2.49-3.42-2.45-5.49.04-2.19,1.09-4.21,1.52-6.34.45-2.14.02-4.78-1.93-5.76,2.33-.71,3.84-.11,4.91,1.29.1.12.19.27.28.43.42.75.77,1.81,1.16,2.44.38.63.84,1.06,1.29,1.49.42.41.85.83,1.22,1.42Z"/>
      </g>
      <g>
        <path class="ai" d="M34.03,135.33c1.82,2,2.42,4.11,1.92,7.13-.2,1.21-.35,3.44-.16,4.52.17.92.54,1.81,1.17,2.51-2.26-.43-4.26-1.15-5.9-2.56-1.8-1.56-2.94-4.05-2.99-6.06-.08-3.09,1.41-4.46,1.39-5.8-.02-.67-.16-1.27-.43-1.8"/>
        <path class="ai" d="M30,133.25c1.6,1.34,2.54,2.84,2.75,4.66.28,2.54-1.5,3.45-.57,6.62.54,1.85,2.89,3.98,4.78,4.96"/>
        <path class="ai" d="M30.91,133.37c.77.78,1.69,1.42,2.68,1.81.15.06.29.11.44.15,1.62.43,3.1-.23,4.91.19,1.58.36,2.64,2.27,5.1,1.86,2.79-.46,3.46-2.05,4.44-4.1-1.26.4-2.79.42-3.93-.24-1.35-.78-2.22-2.38-3.5-2.71-.97-.25-1.77-.15-2.53.09"/>
        <path class="ai" d="M33.22,133.37c.46.18.89.29,1.28.33,2.54.23,3.44-1.26,5.16-.93,1.88.35,3.26,2.51,4.56,2.6,1.74.14,3.18-1.05,4.26-2.09"/>
        <path class="ai" d="M29.63,133.19l.36.06h.01c.31.05.6.09.9.12h.01c.29.03.58.05.86.05.51.02,1,0,1.45-.05,2.25-.24,3.92-1.21,5.05-2.61.09-.11.17-.22.25-.34,1.78-2.52,1.44-5.52,1.54-6.73.2-2.55,1.78-4.68,3.33-5.33-1.77-1.05-2.72-1.18-3.86-.08-1.02.99-1.16,1.67-1.52,2.27-.14.23-.31.44-.56.65-1.42,1.17-2.39.85-4.16,2.54-1.5,1.42-2.04,2.73-2.32,4.6"/>
        <path class="ai" d="M31.14,113.31c.03-.05.06-.08.09-.12.69-.89,1.44-1.3,1.57-1.32.45-.03.2,1.24.64,1.34.26.06.77-.64.98-.8.39-.29.88.61,1.16.99.16.23.31.47.45.71.72,1.25,1.11,2.67,1.45,4.1.18.78.34,1.57.53,2.34,0,.02,0,.04.01.05"/>
        <path class="ai" d="M28.61,119.64c.23-2.51,1.18-4.55,2.53-6.33"/>
        <path class="ai" d="M26.18,115.7c.62-1.07,1.94-2.3,2.91-3.06.52-.42,1.16-.89,1.67-.74.46.14.39,1.31.38,1.41"/>
        <path class="ai" d="M37.48,118.21c.11-1.81.96-3.24.88-5.04-.76-.03-1.63.38-2.33.94"/>
        <path class="ai" d="M29.63,133.19c.02-.06.05-.12.07-.18.07-.18.13-.35.2-.53.02-.07.05-.13.07-.2.1-.27.19-.54.27-.82l.18-.6c.23-.82.41-1.65.54-2.49v-.03c.07-.42.11-.85.15-1.26.16-2.08-.19-4.24-1.28-6.02-.37-.59-.8-1.01-1.22-1.42-.45-.43-.91-.86-1.29-1.49-.39-.63-.74-1.69-1.16-2.44-.09-.16-.18-.31-.28-.43-1.07-1.4-2.58-2-4.91-1.29,1.95.98,2.38,3.62,1.93,5.76-.43,2.13-1.48,4.15-1.52,6.34-.04,2.07.88,4.14,2.45,5.49,1.42,1.23,3.34,1.84,5.2,1.69.2-.02.4-.04.6-.08Z"/>
      </g>
    </g>
    <g>
      <g>
        <path class="p" d="M143.64,132.17c-.3.13-.6.23-.89.29-1.04.19-2.13-.08-3.07-.57-.48-.25-1-.55-1.54-.48-.84.11-1.6.62-2.42,1.19-.82.06-1.8.06-2.79-.03.59-.73,1.07-1.51.52-2.47.11-.02.23-.03.34-.03,1.81-.06,2.48-1.19,2.44-2.18-.02-.57.04-1.01.14-1.41.33-.01.66.03.97.11,1.06.26,1.91.81,2.57,1.65.78.98,1.59,1.64,2.51,2.08.92.43,1.95.5,2.89.15-.24.73-.92,1.34-1.67,1.7Z"/>
        <path class="ab" d="M142.75,132.46c.29-.06.59-.16.89-.29-3.25,1.85-7.05,2.66-11.9,2.3,0-.03.01-.05.02-.08.06-.01.13-.01.2-.02,1.55-.19,2.7-1.03,3.76-1.77.82-.57,1.58-1.08,2.42-1.19.54-.07,1.06.23,1.54.48.94.49,2.03.76,3.07.57Z"/>
        <path class="i" d="M139.8,143.19c-.04.06-.09.12-.15.17-1.57,1.49-7.24,2.23-8.11-1.16-.35-1.36-1.48-2.48-2.78-3.11.18,0,.36,0,.55.01,1.42.12,2.31-.45,2.7-1.3,1.33,1.2,2.36,2.63,3.24,4.1,1.14,1.9,2.95,2.01,4.55,1.29Z"/>
        <path class="z" d="M139.65,143.36c-1.49,1.64-2.68,2.29-4.64,2.75-2.17.51-4.83.21-6.65-1.08-.9-.64-1.86-1.59-2.63-2.58.07-.15.12-.31.15-.49.36-2.01,1.52-2.8,2.88-2.87,1.3.63,2.43,1.75,2.78,3.11.87,3.39,6.54,2.65,8.11,1.16Z"/>
        <path class="r" d="M133.45,130.1c-1.22.1-2.22.58-3.29,1.39.28-1.02.34-2.16.85-2.89.2-.27.45-.48.8-.61.73-.27,1.25-1.15.76-1.95-.44-.73.05-1.9.03-2.75-.02-.9-.81-1.66-1.63-2.04-1.14-.54-3.07-.04-4.64.93,2.58-4.63,2.5-7.51.28-8.25-1.76-.59-2.65-1.19-3.42-2.33.82-1.27,2.5-1.88,4.06-1.72,1.9.19,3.53,1.32,4.14,2.91.89,2.29.38,3.23,1.84,4.4,1.2.96,2.9.29,3.9,1.77.86,1.25.81,2.67.44,4.33-.33,1.45-.93,2.14-1.2,3.19-.1.4-.16.84-.14,1.41.04.99-.63,2.12-2.44,2.18-.11,0-.23.01-.34.03Z"/>
        <path class="p" d="M132.93,132.57c.99.09,1.97.09,2.79.03-1.06.74-2.21,1.58-3.76,1.77-.07.01-.14.01-.2.02.12-.63.69-1.21,1.17-1.82Z"/>
        <path class="r" d="M133.45,130.1c.55.96.07,1.74-.52,2.47-.48.61-1.05,1.19-1.17,1.82-.01.03-.02.05-.02.08-.04.24,0,.48.13.74.43.89.48,1.85.14,2.59-.39.85-1.28,1.42-2.7,1.3-.19-.01-.37-.01-.55-.01-1.36.07-2.52.86-2.88,2.87-.03.18-.08.34-.15.49-.51,1.18-1.94,1.54-2.84,1.45-2.16-.19-2.11,1.14-4.7.88-1.87-.18-2.32-1.44-5.03-1.3-.31.02-.59.02-.86.01-2.54-.07-3.16-1.19-2.86-3.54.84.21,1.45.51,2.36.38,1.21-.16,1.47-.96,2.15-1.26,1.01-.43,1.64-.03,2.42-.5,1.75,1.05,4,1.23,5.69.63,1.6-.55,2.45-1.76,2.73-2.3,1.08-2.1,3.08-2.43,4.34-3.61.27-.24.5-.52.68-.87.07-.11.12-.23.17-.36.07-.18.13-.37.18-.57,1.07-.81,2.07-1.29,3.29-1.39Z"/>
        <path class="ad" d="M132.57,126.04c.49.8-.03,1.68-.76,1.95-.35.13-.6.34-.8.61-.51.73-.57,1.87-.85,2.89-.05.2-.11.39-.18.57-.05.13-.1.25-.17.36-.18.35-.41.63-.68.87-1.26,1.18-3.26,1.51-4.34,3.61-.28.54-1.13,1.75-2.73,2.3-1.69.6-3.94.42-5.69-.63.06-.04.12-.07.18-.12.96-.73,2.03-2.91,1.06-5.09,2.28-.52,3.9-1.65,5-3.15.46.16.94.35,1.44.59-.35-.36-.73-.71-1.14-1.04,1.08-1.7,1.53-3.78,1.53-5.93.46-.62,1.13-1.19,1.89-1.65,1.57-.97,3.5-1.47,4.64-.93.82.38,1.61,1.14,1.63,2.04.02.85-.47,2.02-.03,2.75Z"/>
        <path class="ad" d="M126.61,113.93c2.22.74,2.3,3.62-.28,8.25-.76.46-1.43,1.03-1.89,1.65.03-1.29.19-2.46.73-3.58.5-1.02.25-2.84-.53-3.4h-.01c-.11-.16-.28-.28-.51-.37-.57-.2-.88-.66-.97-1.3-.13-.88-.91-1.21-1.68-1.16-.87.05-2.03.44-2.78.9-.21-.05-.46-.07-.74-.05-.73.06-1.29-.15-1.79-.66-.86-.9-2.44-.83-3.73-.11-.57.32-1.05.79-1.39,1.31-.71-1.16-3.21-1.84-4.75-1.9-.68-.02-1.1.16-1.47.4.04-1.6,1.1-2.76,2.57-2.64,2.39.21,2.36-2.85,5.13-2.08,4.7,1.31,8.09-2.7,9.83.88.29.6.56,1.11.84,1.53.77,1.14,1.66,1.74,3.42,2.33Z"/>
        <path class="y" d="M124.64,116.85c.78.56,1.03,2.38.53,3.4-.54,1.12-.7,2.29-.73,3.58,0,2.15-.45,4.23-1.53,5.93-1.42-1.16-3.18-2.18-4.95-2.92l.02-.06c.38-2.03,1.24-3.34,3.38-4.6.98-.59,1.7-1.14,2.27-1.9.44-.59.79-1.32,1.1-2.28.15-.45.12-.85-.09-1.15Z"/>
        <path class="ae" d="M124.64,116.85c.21.3.24.7.09,1.15-.31.96-.66,1.69-1.1,2.28l-.08-.06c-.72-.19-1.51-.16-2.26.1.27-1.4-1.2-1.69-1.15-3.2.03-.93-.4-1.95-1.45-2.2.75-.46,1.91-.85,2.78-.9.77-.05,1.55.28,1.68,1.16.09.64.4,1.1.97,1.3.23.09.4.21.51.37h.01Z"/>
        <path class="ag" d="M123.55,120.22l.08.06c-.57.76-1.29,1.31-2.27,1.9-2.14,1.26-3,2.57-3.38,4.6l-.02.06c-2.36-.98-4.72-1.47-6.29-1.14-.55.11-1.07.2-1.58.24.17-.55.81-1.2,1.76-1.41.33-.07.71-.09,1.11-.02h.01c.12.02.24.04.36.07,2.4.62,4.34-.29,5.39-1.83.12-.16.22-.33.31-.51.15-.29.33-.55.54-.78v-.01c.48-.54,1.08-.92,1.72-1.13.75-.26,1.54-.29,2.26-.1Z"/>
        <path class="t" d="M122.91,129.76c-.09.15-.19.3-.3.45-3.06-1.06-5.49-.82-8.38-1.69-1.8-.55-2.59-1.24-4.03-1.37-1.05-.1-2.38.25-3.76.23v-.01h-.22c-.07,0-.14-.01-.22-.01-.07-.01-.14-.02-.2-.02-1.33-.16-2.45-.72-3.01-1.35.04-.07.09-.13.15-.19.11-.09.26-.17.43-.25.53-.21,1.3-.26,1.92-.06.58.19,1.23.35,1.94.43.7.09,1.46.12,2.29.07.18-.01.38-.02.57-.05.51-.04,1.03-.13,1.58-.24,1.57-.33,3.93.16,6.29,1.14,1.77.74,3.53,1.76,4.95,2.92Z"/>
        <path class="y" d="M118.69,114.92c1.05.25,1.48,1.27,1.45,2.2-.05,1.51,1.42,1.8,1.15,3.2-.64.21-1.24.59-1.72,1.13.4-1.27.08-2.89-.56-3.88-.49-.78-1.27-1-1.97-.78-.88.27-1.54.15-1.99-.58-.54-.87-2.02-1.13-2.85-.3-.48.49-.96.83-1.62,1.01-.02-.49.16-1.02.46-1.51.34-.52.82-.99,1.39-1.31,1.29-.72,2.87-.79,3.73.11.5.51,1.06.72,1.79.66.28-.02.53,0,.74.05Z"/>
        <path class="q" d="M119.01,117.57c.64.99.96,2.61.56,3.88v.01c-.21.23-.39.49-.54.78-.09.18-.19.35-.31.51-.9-1.33.16-2.33-.66-3.98-.02-.05-.05-.11-.08-.16-.86-1.37-1.83-.26-2.62-.35-.82-.09-1.56.47-1.75,1.07-.36.14-.64.36-.89.54h-.01c-.35-.4-.85-.67-1.47-.64-.91-.1-1.09.75-1.72,1.21-.71.52-1.61.34-1.9,1.56-.03-.37-.03-.75,0-1.12.08-1.18.4-2.45,1.1-3.2.05-.05.09-.09.14-.13l.03-.03c.29-.26.65-.43,1.06-.48.23-.03.44-.07.63-.12.66-.18,1.14-.52,1.62-1.01.83-.83,2.31-.57,2.85.3.45.73,1.11.85,1.99.58.7-.22,1.48,0,1.97.78Z"/>
        <path class="k" d="M117.61,133.36c-.82.19-1.72.29-2.73.3-1.29-1.88-3.02-3.48-5-4.62-1.11-.63-2.29-1.12-3.44-1.66,1.38.02,2.71-.33,3.76-.23,1.44.13,2.23.82,4.03,1.37,2.89.87,5.32.63,8.38,1.69-1.1,1.5-2.72,2.63-5,3.15Z"/>
        <path class="q" d="M118.06,118.77c.82,1.65-.24,2.65.66,3.98-1.05,1.54-2.99,2.45-5.39,1.83-.12-.03-.24-.05-.36-.07v-.01c1.03-.04,2.48-.12,3.35-.87.18-.15.34-.35.46-.56.08-.16.14-.31.19-.46.13-.41.15-.83.33-1.38.19-.62,1.07-1.66.76-2.46Z"/>
        <path class="m" d="M118.06,118.77c.31.8-.57,1.84-.76,2.46-.18.55-.2.97-.33,1.38.12-.88-.79-1.14-1.01-1.67-.17-.42.02-1.43-.7-1.64-.71-.19-1.23-.13-1.65.03.19-.6.93-1.16,1.75-1.07.79.09,1.76-1.02,2.62.35.03.05.06.11.08.16Z"/>
        <path class="ad" d="M95.71,139.01c-.44-.22-.82-.47-.96-1.02-.21-.81.04-1.99.89-2.53l.19-.13c1.06,1.41,3.86,1.42,5.97.96,3.55-.78,8.43,4.71,10.31-2.16v-.01c.82.02,1.68-.12,2.53-.45h.01c.31.26.57.55.79.87-.18-.3-.36-.59-.56-.88,1.01-.01,1.91-.11,2.73-.3.97,2.18-.1,4.36-1.06,5.09-.06.05-.12.08-.18.12-.78.47-1.41.07-2.42.5-.68.3-.94,1.1-2.15,1.26-.91.13-1.52-.17-2.36-.38-.41-.09-.88-.17-1.46-.16-1.86.02-2.89.34-4.2,1.47-1.29,1.12-2.56,1.4-4.49.76-1.59-.54-1.5-1.38-2.47-2.32-.34-.33-.75-.51-1.11-.69Z"/>
        <path class="ac" d="M115.96,120.94c.22.53,1.13.79,1.01,1.67-.05.15-.11.3-.19.46-.12.21-.28.41-.46.56-.46-.05-1.09-.25-1.48-.69-.29-.36-.44-.91-.35-1.4.11-.37.03-.7-.22-.92-.16-.14-.41-.18-.61-.09-.19.08-.32.27-.34.47-.12-.41-.32-.81-.6-1.13.25-.18.53-.4.89-.54.42-.16.94-.22,1.65-.03.72.21.53,1.22.7,1.64Z"/>
        <path class="t" d="M114.88,133.66c.2.29.38.58.56.88-.22-.32-.48-.61-.79-.87h-.01c-.87-.74-2.03-1.17-3.16-1.24-1.68-.1-2.54-.58-3.15-1.94-.67-1.5-1.52-2.17-2.63-2.28-.26-.03-.53-.02-.81.01-.05,0-.1.01-.15.01-.97.13-2.03.14-2.95-.61-.76-.62-1-1.56-.95-2.36.04-.69.45-1.23,1.03-1.32.41.62.92,1.15,1.5,1.61-.18.07-.33.15-.43.25-.06.06-.11.12-.15.19.56.63,1.68,1.19,3.01,1.35.06,0,.13.01.2.02.08,0,.15.01.22.01.07.01.15.01.22,0v.01c1.15.54,2.33,1.03,3.44,1.66,1.98,1.14,3.71,2.74,5,4.62Z"/>
        <path class="o" d="M114.84,122.94c.39.44,1.02.64,1.48.69-.87.75-2.32.83-3.35.87v.01h-.01c-.4-.07-.78-.05-1.11.02-.64-.36-.66-.82-.73-1.21.13-.51.49-.91.91-1.15.35-.19.74-.28,1.08-.24.11.01.22.01.32.01.43,0,.81-.13,1.06-.4-.09.49.06,1.04.35,1.4Z"/>
        <path class="l" d="M114.27,120.62c.25.22.33.55.22.92-.25.27-.63.4-1.06.4.02-.29-.02-.61-.11-.93v-.01c.02-.2.15-.39.34-.47.2-.09.45-.05.61.09Z"/>
        <path class="u" d="M113.32,121.01c.09.32.13.64.11.93-.1,0-.21,0-.32-.01-.34-.04-.73.05-1.08.24.17-.35.26-1.06.22-1.51-.06-.65-.35-1.39-1.01-1.43.62-.03,1.12.24,1.47.64h.01c.28.32.48.72.6,1.13v.01Z"/>
        <path class="k" d="M114.64,133.67c-.85.33-1.71.47-2.53.45-1.05-.01-2.04-.28-2.9-.72-.68-.34-1.28-.79-1.77-1.31-1.47-1.56-.74-2.98-2.55-3.87.28-.03.55-.04.81-.01,1.11.11,1.96.78,2.63,2.28.61,1.36,1.47,1.84,3.15,1.94,1.13.07,2.29.5,3.16,1.24Z"/>
        <path class="x" d="M112.25,120.66c.04.45-.05,1.16-.22,1.51-.12-.55-.5-1-1.04-1.05-.55-.06-1.05.31-1.24.73-.31,1.02-1.42,1.26-1.37,2.71-.44-.78-.68-1.66-.76-2.55v-.01c.29-1.22,1.19-1.04,1.9-1.56.63-.46.81-1.31,1.72-1.21.66.04.95.78,1.01,1.43Z"/>
        <path class="ad" d="M112.11,134.12v.01c-1.88,6.87-6.76,1.38-10.31,2.16-2.11.46-4.91.45-5.97-.96-.18-.24-.31-.53-.38-.86-.72-3.43-3.7-3.67-2.22-6.39.59-1.08.63-1.95.5-2.71-.22-1.27-.93-2.26-.36-3.56.55-1.26,1.57-2.25,4.45-2.45-.74,1.67-2.42,2.75-1.56,4.4.97,1.86,2.1,2.54,1.85,4.42-.16,1.16.39,2.11,1.55,2.17,1.59.1,2.65.46,3.22,1.58,1.06,2.03,4.18,2.02,6.33,1.47.86.44,1.85.71,2.9.72Z"/>
        <path class="l" d="M112.03,122.17c-.42.24-.78.64-.91,1.15-.06-.33-.16-.63-.74-.77-.46-.12-.63-.7-.63-.7.19-.42.69-.79,1.24-.73.54.05.92.5,1.04,1.05Z"/>
        <path class="w" d="M111.12,123.32c.07.39.09.85.73,1.21-.95.21-1.59.86-1.76,1.41-.19.03-.39.04-.57.05-.47-.41-.85-.89-1.14-1.43-.05-1.45,1.06-1.69,1.37-2.71,0,0,.17.58.63.7.58.14.68.44.74.77Z"/>
        <path class="r" d="M112.3,143.49c-.77,2.02-2.43.97-4.91,2.08-1.33.6-2.09.72-3.46.5-.98-.15-2.5-1.18-3.68-1.62-2.02-.77-4.19-.1-5.27-2.32-.23-.46-.3-1.04-.22-1.57.08-.68.41-1.3.95-1.55.36.18.77.36,1.11.69.97.94.88,1.78,2.47,2.32,1.93.64,3.2.36,4.49-.76,1.31-1.13,2.34-1.45,4.2-1.47.58-.01,1.05.07,1.46.16-.3,2.35.32,3.47,2.86,3.54Z"/>
        <path class="ad" d="M111.04,115.41c-.3.49-.48,1.02-.46,1.51-.19.05-.4.09-.63.12-.41.05-.77.22-1.06.48-1.41-1.64-4.55-1.05-4.88.87-.15.91-.46,1.26-1.56,1.44-1.53.24-1.47,2.96-.58,4.11-.58.09-.99.63-1.03,1.32-.05.8.19,1.74.95,2.36.92.75,1.98.74,2.95.61.05,0,.1-.01.15-.01,1.81.89,1.08,2.31,2.55,3.87.49.52,1.09.97,1.77,1.31-2.15.55-5.27.56-6.33-1.47-.57-1.12-1.63-1.48-3.22-1.58-1.16-.06-1.71-1.01-1.55-2.17.25-1.88-.88-2.56-1.85-4.42-.86-1.65.82-2.73,1.56-4.4.6-1.35.39-3.27,1.55-3.81,1.11-.53,2.98-.36,4.04-.74.61-.22.97-.6,1.41-.9.37-.24.79-.42,1.47-.4,1.54.06,4.04.74,4.75,1.9Z"/>
        <path class="n" d="M109.52,125.99c-.83.05-1.59.02-2.29-.07-.77-2.1-.64-6.06,1.49-8.24-.7.75-1.02,2.02-1.1,3.2-.03.37-.03.75,0,1.12v.01c.08.89.32,1.77.76,2.55.29.54.67,1.02,1.14,1.43Z"/>
        <path class="ag" d="M108.89,117.52l-.03.03c-.05.04-.09.08-.14.13-2.13,2.18-2.26,6.14-1.49,8.24-.71-.08-1.36-.24-1.94-.43-.62-.2-1.39-.15-1.92.06-.58-.46-1.09-.99-1.5-1.61-.89-1.15-.95-3.87.58-4.11,1.1-.18,1.41-.53,1.56-1.44.33-1.92,3.47-2.51,4.88-.87Z"/>
        <path class="r" d="M95.83,135.33l-.19.13c-.85.54-1.1,1.72-.89,2.53.14.55.52.8.96,1.02-.54.25-.87.87-.95,1.55h-.01c-.94-.33-2.11-1.16-2.64-2.79-.41-1.27.36-2.52-.05-4.3-.42-1.9-2.22-1.8-2-4.14.2-2.14,2.02-3.81,3.67-3.96.13.76.09,1.63-.5,2.71-1.48,2.72,1.5,2.96,2.22,6.39.07.33.2.62.38.86Z"/>
      </g>
      <g>
        <path class="ai" d="M136.37,126.48c.33-.01.66.03.97.11,1.06.26,1.91.81,2.57,1.65.78.98,1.59,1.64,2.51,2.08.92.43,1.95.5,2.89.15-.24.73-.92,1.34-1.67,1.7-.3.13-.6.23-.89.29-1.04.19-2.13-.08-3.07-.57-.48-.25-1-.55-1.54-.48-.84.11-1.6.62-2.42,1.19-1.06.74-2.21,1.58-3.76,1.77-.07.01-.14.01-.2.02"/>
        <path class="ai" d="M131.74,134.47c4.85.36,8.65-.45,11.9-2.3l.45-.27"/>
        <path class="ai" d="M132.93,132.57c.99.09,1.97.09,2.79.03"/>
        <path class="ai" d="M139.8,143.19c-1.6.72-3.41.61-4.55-1.29-.88-1.47-1.91-2.9-3.24-4.1"/>
        <path class="ai" d="M125.73,142.45c.77.99,1.73,1.94,2.63,2.58,1.82,1.29,4.48,1.59,6.65,1.08,1.96-.46,3.15-1.11,4.64-2.75"/>
        <path class="ai" d="M128.76,139.09c1.3.63,2.43,1.75,2.78,3.11.87,3.39,6.54,2.65,8.11,1.16.06-.05.11-.11.15-.17"/>
        <path class="ai" d="M104.89,128.22c1.81.89,1.08,2.31,2.55,3.87.49.52,1.09.97,1.77,1.31.86.44,1.85.71,2.9.72.82.02,1.68-.12,2.53-.45"/>
        <path class="ai" d="M106.44,127.38c1.38.02,2.71-.33,3.76-.23,1.44.13,2.23.82,4.03,1.37,2.89.87,5.32.63,8.38,1.69.46.16.94.35,1.44.59-.35-.36-.73-.71-1.14-1.04-1.42-1.16-3.18-2.18-4.95-2.92-2.36-.98-4.72-1.47-6.29-1.14-.55.11-1.07.2-1.58.24-.19.03-.39.04-.57.05-.83.05-1.59.02-2.29-.07-.71-.08-1.36-.24-1.94-.43-.62-.2-1.39-.15-1.92.06-.18.07-.33.15-.43.25"/>
        <path class="ai" d="M106.22,127.37c.07.01.15.01.22,0"/>
        <path class="ai" d="M111.05,115.42l-.01-.01c-.71-1.16-3.21-1.84-4.75-1.9-.68-.02-1.1.16-1.47.4-.44.3-.8.68-1.41.9-1.06.38-2.93.21-4.04.74-1.16.54-.95,2.46-1.55,3.81-.74,1.67-2.42,2.75-1.56,4.4.97,1.86,2.1,2.54,1.85,4.42-.16,1.16.39,2.11,1.55,2.17,1.59.1,2.65.46,3.22,1.58,1.06,2.03,4.18,2.02,6.33,1.47"/>
        <path class="ai" d="M97.82,119.36c-2.88.2-3.9,1.19-4.45,2.45-.57,1.3.14,2.29.36,3.56.13.76.09,1.63-.5,2.71-1.48,2.72,1.5,2.96,2.22,6.39.07.33.2.62.38.86,1.06,1.41,3.86,1.42,5.97.96,3.55-.78,8.43,4.71,10.31-2.16"/>
        <path class="ai" d="M108.89,117.52c.29-.26.65-.43,1.06-.48.23-.03.44-.07.63-.12.66-.18,1.14-.52,1.62-1.01.83-.83,2.31-.57,2.85.3.45.73,1.11.85,1.99.58.7-.22,1.48,0,1.97.78.64.99.96,2.61.56,3.88"/>
        <path class="ai" d="M107.62,122c-.03-.37-.03-.75,0-1.12.08-1.18.4-2.45,1.1-3.2"/>
        <path class="ai" d="M109.52,125.99c-.47-.41-.85-.89-1.14-1.43-.44-.78-.68-1.66-.76-2.55"/>
        <path class="ai" d="M110.58,116.92c-.02-.49.16-1.02.46-1.51.34-.52.82-.99,1.39-1.31,1.29-.72,2.87-.79,3.73.11.5.51,1.06.72,1.79.66.28-.02.53,0,.74.05,1.05.25,1.48,1.27,1.45,2.2-.05,1.51,1.42,1.8,1.15,3.2"/>
        <path class="ai" d="M118.06,118.77c.31.8-.57,1.84-.76,2.46-.18.55-.2.97-.33,1.38-.05.15-.11.3-.19.46-.12.21-.28.41-.46.56-.87.75-2.32.83-3.35.87"/>
        <path class="ai" d="M113.61,119.33c.19-.6.93-1.16,1.75-1.07.79.09,1.76-1.02,2.62.35"/>
        <path class="ai" d="M117.98,118.61c.03.05.06.11.08.16.82,1.65-.24,2.65.66,3.98"/>
        <path class="ai" d="M116.97,122.61c.12-.88-.79-1.14-1.01-1.67-.17-.42.02-1.43-.7-1.64-.71-.19-1.23-.13-1.65.03-.36.14-.64.36-.89.54"/>
        <path class="ai" d="M111.85,124.53c-.64-.36-.66-.82-.73-1.21-.06-.33-.16-.63-.74-.77-.46-.12-.63-.7-.63-.7-.31,1.02-1.42,1.26-1.37,2.71"/>
        <path class="ai" d="M116.32,123.63c-.46-.05-1.09-.25-1.48-.69-.29-.36-.44-.91-.35-1.4-.25.27-.63.4-1.06.4-.1,0-.21,0-.32-.01-.34-.04-.73.05-1.08.24-.42.24-.78.64-.91,1.15"/>
        <path class="ai" d="M113.32,121c.02-.2.15-.39.34-.47.2-.09.45-.05.61.09.25.22.33.55.22.92"/>
        <path class="ai" d="M113.31,121.04c.01-.01.01-.02.01-.03"/>
        <path class="ai" d="M111.24,119.23c-.91-.1-1.09.75-1.72,1.21-.71.52-1.61.34-1.9,1.56v.01"/>
        <path class="ai" d="M124.64,116.85c.21.3.24.7.09,1.15-.31.96-.66,1.69-1.1,2.28-.57.76-1.29,1.31-2.27,1.9-2.14,1.26-3,2.57-3.38,4.6"/>
        <path class="ai" d="M118.66,114.94c.01-.01.02-.01.03-.02.75-.46,1.91-.85,2.78-.9.77-.05,1.55.28,1.68,1.16.09.64.4,1.1.97,1.3.23.09.4.21.51.37"/>
        <path class="ai" d="M124.63,116.85h.01c.78.56,1.03,2.38.53,3.4-.54,1.12-.7,2.29-.73,3.58"/>
        <path class="ai" d="M104.82,113.91c.04-1.6,1.1-2.76,2.57-2.64,2.39.21,2.36-2.85,5.13-2.08,4.7,1.31,8.09-2.7,9.83.88.29.6.56,1.11.84,1.53.77,1.14,1.66,1.74,3.42,2.33,2.22.74,2.3,3.62-.28,8.25"/>
        <path class="ai" d="M94.75,140.56c-.94-.33-2.11-1.16-2.64-2.79-.41-1.27.36-2.52-.05-4.3-.42-1.9-2.22-1.8-2-4.14.2-2.14,2.02-3.81,3.67-3.96"/>
        <path class="ai" d="M109.75,121.85c.19-.42.69-.79,1.24-.73.54.05.92.5,1.04,1.05.17-.35.26-1.06.22-1.51-.06-.65-.35-1.39-1.01-1.43.62-.03,1.12.24,1.47.64h.01c.28.32.48.72.6,1.13v.01c.09.32.13.64.11.93"/>
        <path class="ai" d="M123.55,120.22c-.72-.19-1.51-.16-2.26.1-.64.21-1.24.59-1.72,1.13v.01c-.21.23-.39.49-.54.78-.09.18-.19.35-.31.51-1.05,1.54-2.99,2.45-5.39,1.83-.12-.03-.24-.05-.36-.07h-.01c-.4-.07-.78-.05-1.11.02-.95.21-1.59.86-1.76,1.41"/>
        <path class="ai" d="M107.23,125.92c-.77-2.1-.64-6.06,1.49-8.24.05-.05.09-.09.14-.13l.03-.03"/>
        <path class="ai" d="M108.89,117.52c-1.41-1.64-4.55-1.05-4.88.87-.15.91-.46,1.26-1.56,1.44-1.53.24-1.47,2.96-.58,4.11"/>
        <path class="ai" d="M95.73,138.99c-.01.01-.02.01-.02.02-.54.25-.87.87-.95,1.55-.08.53-.01,1.11.22,1.57,1.08,2.22,3.25,1.55,5.27,2.32,1.18.44,2.7,1.47,3.68,1.62,1.37.22,2.13.1,3.46-.5,2.48-1.11,4.14-.06,4.91-2.08"/>
        <path class="ai" d="M109.44,139.95c-.3,2.35.32,3.47,2.86,3.54.27.01.55.01.86-.01,2.71-.14,3.16,1.12,5.03,1.3,2.59.26,2.54-1.07,4.7-.88.9.09,2.33-.27,2.84-1.45.07-.15.12-.31.15-.49.36-2.01,1.52-2.8,2.88-2.87.18,0,.36,0,.55.01,1.42.12,2.31-.45,2.7-1.3.34-.74.29-1.7-.14-2.59-.13-.26-.17-.5-.13-.74,0-.03.01-.05.02-.08.12-.63.69-1.21,1.17-1.82.59-.73,1.07-1.51.52-2.47l-.01-.01"/>
        <path class="ai" d="M114.88,133.66c1.01-.01,1.91-.11,2.73-.3,2.28-.52,3.9-1.65,5-3.15.11-.15.21-.3.3-.45,1.08-1.7,1.53-3.78,1.53-5.93.46-.62,1.13-1.19,1.89-1.65,1.57-.97,3.5-1.47,4.64-.93.82.38,1.61,1.14,1.63,2.04.02.85-.47,2.02-.03,2.75.49.8-.03,1.68-.76,1.95-.35.13-.6.34-.8.61-.51.73-.57,1.87-.85,2.89-.05.2-.11.39-.18.57-.05.13-.1.25-.17.36-.18.35-.41.63-.68.87-1.26,1.18-3.26,1.51-4.34,3.61-.28.54-1.13,1.75-2.73,2.3-1.69.6-3.94.42-5.69-.63"/>
        <path class="ai" d="M95.64,135.46c-.85.54-1.1,1.72-.89,2.53.14.55.52.8.96,1.02.36.18.77.36,1.11.69.97.94.88,1.78,2.47,2.32,1.93.64,3.2.36,4.49-.76,1.31-1.13,2.34-1.45,4.2-1.47.58-.01,1.05.07,1.46.16.84.21,1.45.51,2.36.38,1.21-.16,1.47-.96,2.15-1.26,1.01-.43,1.64-.03,2.42-.5.06-.04.12-.07.18-.12.96-.73,2.03-2.91,1.06-5.09v-.01"/>
        <path class="ai" d="M130.16,131.49c1.07-.81,2.07-1.29,3.29-1.39.11-.02.23-.03.34-.03,1.81-.06,2.48-1.19,2.44-2.18-.02-.57.04-1.01.14-1.41.27-1.05.87-1.74,1.2-3.19.37-1.66.42-3.08-.44-4.33-1-1.48-2.7-.81-3.9-1.77-1.46-1.17-.95-2.11-1.84-4.4-.61-1.59-2.24-2.72-4.14-2.91-1.56-.16-3.24.45-4.06,1.72"/>
        <path class="ai" d="M114.88,133.66c-1.29-1.88-3.02-3.48-5-4.62-1.11-.63-2.29-1.12-3.44-1.66v-.01h-.22c-.07,0-.14-.01-.22-.01-.07-.01-.14-.02-.2-.02-1.33-.16-2.45-.72-3.01-1.35.04-.07.09-.13.15-.19.11-.09.26-.17.43-.25-.58-.46-1.09-.99-1.5-1.61-.58.09-.99.63-1.03,1.32-.05.8.19,1.74.95,2.36.92.75,1.98.74,2.95.61.05,0,.1-.01.15-.01.28-.03.55-.04.81-.01,1.11.11,1.96.78,2.63,2.28.61,1.36,1.47,1.84,3.15,1.94,1.13.07,2.29.5,3.16,1.24h.01c.31.26.57.55.79.87-.18-.3-.36-.59-.56-.88Z"/>
      </g>
    </g>
    <path class="ai" d="M74.6,21.97c.2.06.39.12.57.18"/>
    <g>
      <g>
        <path class="ab" d="M89.16,34.08c1.66-.41,3.09-1.19,4.12-2.22.74-.74,1.27-1.6,1.53-2.55.55,4.31-3.1,6.95-5.86,7.02-2.9.07-6.78-.8-10.84-4.92,3.63,2.91,7.78,3.51,11.05,2.67Z"/>
        <path class="ah" d="M87.78,23.56c3.7,3.48,3.61,5.89,5.5,8.3-1.03,1.03-2.46,1.81-4.12,2.22-8.3-3.49-5.33-8.98-13.71-11.84,1.84.6,3.64.86,5.48.55,1.07-.18,2.12-.61,3.05-1.17,1.35.28,2.66.86,3.8,1.94Z"/>
        <path class="s" d="M91.43,11.46c-3.34-.05-5.76.74-7.29,2.73-1.55,2.03-.5,3.73-2.93,5.97-1.42,1.3-4.53,1.91-6.65,1.77.9-.27,1.67-.84,2.29-1.54.73-.82,1.75-2.81,2.2-3.95,1.27-3.2,3.13-4.7,6.32-5.38,1.69-.36,3.67-.29,6.06.4Z"/>
        <path class="af" d="M84.14,14.19c1.53-1.99,3.95-2.78,7.29-2.73-1.31.27-2.29.86-3,1.99-.72,1.14-.15,3.08-1.81,5.69-.59.93-1.53,1.81-2.64,2.48-.93.56-1.98.99-3.05,1.17-1.84.31-3.64.05-5.48-.55-.1-.03-.19-.06-.28-.09-.13-.04-.25-.09-.37-.13l-.24-.09c2.12.14,5.23-.47,6.65-1.77,2.43-2.24,1.38-3.94,2.93-5.97Z"/>
        <path class="af" d="M89.16,34.08c-3.27.84-7.42.24-11.05-2.67-3.81-3.56-.86-7.29-3.51-9.44.06.02.13.04.2.05.12.04.24.09.37.13.09.03.18.06.28.09,8.38,2.86,5.41,8.35,13.71,11.84Z"/>
      </g>
      <g>
        <path class="ai" d="M75.45,22.24c8.38,2.86,5.41,8.35,13.71,11.84l.01.01"/>
        <path class="ai" d="M74.8,22.02c-.07-.01-.14-.03-.2-.05,2.65,2.15-.3,5.88,3.51,9.44"/>
        <path class="ai" d="M93.28,31.86c-1.89-2.41-1.8-4.82-5.5-8.3-1.14-1.08-2.45-1.66-3.8-1.94"/>
        <path class="ai" d="M91.43,11.46c-2.39-.69-4.37-.76-6.06-.4-3.19.68-5.05,2.18-6.32,5.38-.45,1.14-1.47,3.13-2.2,3.95-.62.7-1.39,1.27-2.29,1.54l.24.09c.12.04.24.09.37.13.09.03.18.06.28.09,1.84.6,3.64.86,5.48.55,1.07-.18,2.12-.61,3.05-1.17,1.11-.67,2.05-1.55,2.64-2.48,1.66-2.61,1.09-4.55,1.81-5.69.71-1.13,1.69-1.72,3-1.99Z"/>
        <path class="ai" d="M91.43,11.46c-3.34-.05-5.76.74-7.29,2.73-1.55,2.03-.5,3.73-2.93,5.97-1.42,1.3-4.53,1.91-6.65,1.77"/>
        <path class="ai" d="M78.11,31.41c3.63,2.91,7.78,3.51,11.05,2.67,1.66-.41,3.09-1.19,4.12-2.22.74-.74,1.27-1.6,1.53-2.55.55,4.31-3.1,6.95-5.86,7.02-2.9.07-6.78-.8-10.84-4.92Z"/>
      </g>
    </g>
  </g>
</svg>